{
  "type": "service_account",
  "project_id": "justlost-f169e",
  "private_key_id": "81e2cf15b1ce0857c881e73f016c52e1deac3295",
  "private_key": "-----BEGIN PRIVATE KEY-----\nMIIEvgIBADANBgkqhkiG9w0BAQEFAASCBKgwggSkAgEAAoIBAQDEFtJAZ4jjMFPi\nBOj2SyEW4qyXQ92hBgohQHBujplh3kr8hnsssWt6qRjWjnwptNX/41f/1XK7P8P4\nhiGqYOkbuWSEBj4RovxHitjnYvlsJLkhd/98R+zR6IKzTy1DwRxc4CAimgDG/ycy\nj2KkUvjDQceKvElJo/xTwVILfFfx2CHX9q4G7WdHzAmYlfn5v9BS4CzVu2YD645d\nKt6zmkvIpK+5qn0W3+6jcI1OoFtpxQkxHE5ZBz7KmT13q30oApF/Fd95goQUExaU\nXKFPeLS23PE7KgimOLoelaC7kVAdgw68Sn+pSyiu4I5TJL7efRzeShYUQ2Ml1BSL\nrk0D5vUHAgMBAAECggEAICP1dmUCBOsI9MUFQklyNQQWcfzHuPr6chTT2Os6rNX4\nyIdqbRrvmP1aeuCD7XockYK8C8z6r0J2ZqfloL2dt9OdbB5x0gY6/6b8goCwjU8/\noQLAN6i6YnWP5sAVlUNz2K1L1yAS/IsZ66mg63pGGAsSH+VYxd9BHqFTR1qsN5GB\n0khzkdDTjDZwo8Mxm51wI9P6f0Vi+IH/zbB93MJJN1PxZAZpqQiGb8PF80gjuD1T\n3fyVIlT2Zhertn0M+mgUDgZTlUZVYIpPE8fiASmoK+mSa0C6ayKmmzcqYliCJ4C9\nI9uDfxMaNI4+mm4Tm9dJPMHdOVP9gltE11mV6ChqkQKBgQD0KuFOL7rOWTSog90R\ncxvjidGfPf1VM8J56WWnx2jYYmFtYdPMyBtGkcg+c9Y750H3IcTj5t+GO2hl6Y0F\nqoKuUb4eO8j7Dt1TlKxexJ0jhgvduoIpfd1ndhOMm/S9UMn5Jrni/FhGoocIsBAk\nizpfUhsrBsDlMSKjyll7cj0krQKBgQDNl3xIeqxwremUBzzO0OwwPx2//aZGoKol\nGBtOJw3Mljts3A+/z72pooyTIZFI0y5exELMa4cT89qr2BMKTm49r/qhRLu2U9B8\ndHDfbOKvUv9Zc+b8YOhdbu+qj402wu5C5dyyus32BwAsWPKeMByJTrgL0RdfWQGI\ntxLSk3eDAwKBgEGIuMw5d1QnEUEhk1Y5pQSfWwn4o2QY7lu2TziHBxb84NVw6l4O\nX3PDcRGCGcAeQ9BG2gepUdk/XLftxZH9v/F1syd+OGVaCgGC5/jPoLWGJu0uP/1O\n8Pvx7zFQMpIVewBKap4HyNG8ka29Q7frPpGTAgO8Xk2lsHxxtS6y7MJJAoGBAMaH\nwFZlT9vHtUVi789vZIT6jgn2MPkG8Qa9DrEbeXHUqTHoF7VMMIR9GW6C/b7rX13X\n/AFW3Kvh0YocL9bGAiLDqyzMKNBag3uLHexDQ2u2pCqHh8iy8/A1zm5QDTeSaW5k\ndgiJ55XrELnCcxdaslPNlmCi2wUR+C9DSoPaL5BtAoGBAMjhB5TCZYXviwGgZXGP\nJM9NC3T6wokIpQ9j1t9tT7KIwrFANh4O300x+ls8ylxctxZXe5FyKt10lqWwpXA6\nvxZgudPJYFVwHM0fMbT1sMxwMLaszWp6fB3kDpMqq6AlO2toEJAMzEziw7eYvwCr\nYfahDZ4nkwYkeCHeUB1aED2H\n-----END PRIVATE KEY-----\n",
  "client_email": "firebase-adminsdk-ri1ab@justlost-f169e.iam.gserviceaccount.com",
  "client_id": "104872432956010330551",
  "auth_uri": "https://accounts.google.com/o/oauth2/auth",
  "token_uri": "https://oauth2.googleapis.com/token",
  "auth_provider_x509_cert_url": "https://www.googleapis.com/oauth2/v1/certs",
  "client_x509_cert_url": "https://www.googleapis.com/robot/v1/metadata/x509/firebase-adminsdk-ri1ab%40justlost-f169e.iam.gserviceaccount.com"
}
